﻿  HW3.c
c:\users\eric\documents\visual studio 2010\projects\homework assignment 3\homework assignment 3\hw3.c(215): warning C4308: negative integral constant converted to unsigned type
c:\users\eric\documents\visual studio 2010\projects\homework assignment 3\homework assignment 3\hw3.c(215): warning C4307: '*' : integral constant overflow
c:\users\eric\documents\visual studio 2010\projects\homework assignment 3\homework assignment 3\hw3.c(269): warning C4308: negative integral constant converted to unsigned type
c:\users\eric\documents\visual studio 2010\projects\homework assignment 3\homework assignment 3\hw3.c(269): warning C4307: '*' : integral constant overflow
  LINK : C:\Users\Eric\documents\visual studio 2010\Projects\Homework Assignment 3\Debug\Homework Assignment 3.exe not found or not built by the last incremental link; performing full link
  Homework Assignment 3.vcxproj -> C:\Users\Eric\documents\visual studio 2010\Projects\Homework Assignment 3\Debug\Homework Assignment 3.exe
