^C:\USERS\ERIC\DOCUMENTS\VISUAL STUDIO 2010\PROJECTS\HOMEWORK ASSIGNMENT 3\HOMEWORK ASSIGNMENT 3\DEBUG\HW3.OBJ|C:\USERS\ERIC\DOCUMENTS\VISUAL STUDIO 2010\PROJECTS\HOMEWORK ASSIGNMENT 3\HOMEWORK ASSIGNMENT 3\DEBUG\WRAPPER.OBJ
/ERRORREPORT:PROMPT /OUT:"C:\Users\Eric\documents\visual studio 2010\Projects\Homework Assignment 3\Debug\Homework Assignment 3.exe" /NOLOGO kernel32.lib user32.lib gdi32.lib winspool.lib comdlg32.lib advapi32.lib shell32.lib ole32.lib oleaut32.lib uuid.lib odbc32.lib odbccp32.lib /MANIFEST /ManifestFile:"Debug\Homework Assignment 3.exe.intermediate.manifest" /MANIFESTUAC:"level='asInvoker' uiAccess='false'" /DEBUG /PDB:"C:\Users\Eric\documents\visual studio 2010\Projects\Homework Assignment 3\Debug\Homework Assignment 3.pdb" /TLBID:1 /DYNAMICBASE /NXCOMPAT /IMPLIB:"C:\Users\Eric\documents\visual studio 2010\Projects\Homework Assignment 3\Debug\Homework Assignment 3.lib" /MACHINE:X86 Debug\HW3.obj
Debug\wrapper.obj
