^C:\USERS\ERIC\DOCUMENTS\VISUAL STUDIO 2010\PROJECTS\HOMEWORK ASSIGNMENT 2\HOMEWORK ASSIGNMENT 2\HW2.C|C:\USERS\ERIC\DOCUMENTS\VISUAL STUDIO 2010\PROJECTS\HOMEWORK ASSIGNMENT 2\HOMEWORK ASSIGNMENT 2\WRAPPER.C
C:\USERS\ERIC\DOCUMENTS\VISUAL STUDIO 2010\PROJECTS\HOMEWORK ASSIGNMENT 2\HOMEWORK ASSIGNMENT 2\DEBUG\WRAPPER.OBJ
^C:\USERS\ERIC\DOCUMENTS\VISUAL STUDIO 2010\PROJECTS\HOMEWORK ASSIGNMENT 2\HOMEWORK ASSIGNMENT 2\HW2.C
C:\USERS\ERIC\DOCUMENTS\VISUAL STUDIO 2010\PROJECTS\HOMEWORK ASSIGNMENT 2\HOMEWORK ASSIGNMENT 2\DEBUG\VC100.PDB
C:\USERS\ERIC\DOCUMENTS\VISUAL STUDIO 2010\PROJECTS\HOMEWORK ASSIGNMENT 2\HOMEWORK ASSIGNMENT 2\DEBUG\HW2.OBJ
^C:\USERS\ERIC\DOCUMENTS\VISUAL STUDIO 2010\PROJECTS\HOMEWORK ASSIGNMENT 2\HOMEWORK ASSIGNMENT 2\WRAPPER.C
C:\USERS\ERIC\DOCUMENTS\VISUAL STUDIO 2010\PROJECTS\HOMEWORK ASSIGNMENT 2\HOMEWORK ASSIGNMENT 2\DEBUG\VC100.PDB
