^C:\USERS\ERIC\DOCUMENTS\VISUAL STUDIO 2010\PROJECTS\HOMEWORK ASSIGNMENT 3\HOMEWORK ASSIGNMENT 3\RELEASE\HW3.OBJ|C:\USERS\ERIC\DOCUMENTS\VISUAL STUDIO 2010\PROJECTS\HOMEWORK ASSIGNMENT 3\HOMEWORK ASSIGNMENT 3\RELEASE\WRAPPER.OBJ
/ERRORREPORT:PROMPT /OUT:"C:\Users\Eric\documents\visual studio 2010\Projects\Homework Assignment 3\Release\Homework Assignment 3.exe" /NOLOGO kernel32.lib user32.lib gdi32.lib winspool.lib comdlg32.lib advapi32.lib shell32.lib ole32.lib oleaut32.lib uuid.lib odbc32.lib odbccp32.lib /MANIFEST /ManifestFile:"Release\Homework Assignment 3.exe.intermediate.manifest" /MANIFESTUAC:"level='asInvoker' uiAccess='false'" /DEBUG /PDB:"C:\Users\Eric\documents\visual studio 2010\Projects\Homework Assignment 3\Release\Homework Assignment 3.pdb" /OPT:REF /OPT:ICF /LTCG /TLBID:1 /DYNAMICBASE /NXCOMPAT /IMPLIB:"C:\Users\Eric\documents\visual studio 2010\Projects\Homework Assignment 3\Release\Homework Assignment 3.lib" /MACHINE:X86 Release\HW3.obj
Release\wrapper.obj
